{
    "info": {
        "count": 826,
        "pages": 42,
        "next": "http://localhost:3000/api/character?page=2",
        "prev": null
    },
    "results": [
        {
            "id": 1,
            "name": "Rick Sanchez",
            "status": "Alive",
            "species": "Human",
            "type": "",
            "gender": "Male",
            "origin": {
                "name": "Earth (C-137)",
                "url": "http://localhost:3000/api/location/1"
            },
            "location": {
                "name": "Citadel of Ricks",
                "url": "http://localhost:3000/api/location/3"
            },
            "image": "http://localhost:3000/api/character/avatar/1.jpeg",
            "episode": [
                "http://localhost:3000/api/episode/1",
                "http://localhost:3000/api/episode/2",
                "http://localhost:3000/api/episode/3",
                "http://localhost:3000/api/episode/4",
                "http://localhost:3000/api/episode/5",
                "http://localhost:3000/api/episode/6",
                "http://localhost:3000/api/episode/7",
                "http://localhost:3000/api/episode/8",
                "http://localhost:3000/api/episode/9",
                "http://localhost:3000/api/episode/10",
                "http://localhost:3000/api/episode/11",
                "http://localhost:3000/api/episode/12",
                "http://localhost:3000/api/episode/13",
                "http://localhost:3000/api/episode/14",
                "http://localhost:3000/api/episode/15",
                "http://localhost:3000/api/episode/16",
                "http://localhost:3000/api/episode/17",
                "http://localhost:3000/api/episode/18",
                "http://localhost:3000/api/episode/19",
                "http://localhost:3000/api/episode/20",
                "http://localhost:3000/api/episode/21",
                "http://localhost:3000/api/episode/22",
                "http://localhost:3000/api/episode/23",
                "http://localhost:3000/api/episode/24",
                "http://localhost:3000/api/episode/25",
                "http://localhost:3000/api/episode/26",
                "http://localhost:3000/api/episode/27",
                "http://localhost:3000/api/episode/28",
                "http://localhost:3000/api/episode/29",
                "http://localhost:3000/api/episode/30",
                "http://localhost:3000/api/episode/31",
                "http://localhost:3000/api/episode/32",
                "http://localhost:3000/api/episode/33",
                "http://localhost:3000/api/episode/34",
                "http://localhost:3000/api/episode/35",
                "http://localhost:3000/api/episode/36",
                "http://localhost:3000/api/episode/37",
                "http://localhost:3000/api/episode/38",
                "http://localhost:3000/api/episode/39",
                "http://localhost:3000/api/episode/40",
                "http://localhost:3000/api/episode/41",
                "http://localhost:3000/api/episode/42",
                "http://localhost:3000/api/episode/43",
                "http://localhost:3000/api/episode/44",
                "http://localhost:3000/api/episode/45",
                "http://localhost:3000/api/episode/46",
                "http://localhost:3000/api/episode/47",
                "http://localhost:3000/api/episode/48",
                "http://localhost:3000/api/episode/49",
                "http://localhost:3000/api/episode/50",
                "http://localhost:3000/api/episode/51"
            ],
            "url": "http://localhost:3000/api/character/1",
            "created": "2017-11-04T18:48:46.250Z"
        },
        {
            "id": 2,
            "name": "Morty Smith",
            "status": "Alive",
            "species": "Human",
            "type": "",
            "gender": "Male",
            "origin": {
                "name": "unknown",
                "url": ""
            },
            "location": {
                "name": "Citadel of Ricks",
                "url": "http://localhost:3000/api/location/3"
            },
            "image": "http://localhost:3000/api/character/avatar/2.jpeg",
            "episode": [
                "http://localhost:3000/api/episode/1",
                "http://localhost:3000/api/episode/2",
                "http://localhost:3000/api/episode/3",
                "http://localhost:3000/api/episode/4",
                "http://localhost:3000/api/episode/5",
                "http://localhost:3000/api/episode/6",
                "http://localhost:3000/api/episode/7",
                "http://localhost:3000/api/episode/8",
                "http://localhost:3000/api/episode/9",
                "http://localhost:3000/api/episode/10",
                "http://localhost:3000/api/episode/11",
                "http://localhost:3000/api/episode/12",
                "http://localhost:3000/api/episode/13",
                "http://localhost:3000/api/episode/14",
                "http://localhost:3000/api/episode/15",
                "http://localhost:3000/api/episode/16",
                "http://localhost:3000/api/episode/17",
                "http://localhost:3000/api/episode/18",
                "http://localhost:3000/api/episode/19",
                "http://localhost:3000/api/episode/20",
                "http://localhost:3000/api/episode/21",
                "http://localhost:3000/api/episode/22",
                "http://localhost:3000/api/episode/23",
                "http://localhost:3000/api/episode/24",
                "http://localhost:3000/api/episode/25",
                "http://localhost:3000/api/episode/26",
                "http://localhost:3000/api/episode/27",
                "http://localhost:3000/api/episode/28",
                "http://localhost:3000/api/episode/29",
                "http://localhost:3000/api/episode/30",
                "http://localhost:3000/api/episode/31",
                "http://localhost:3000/api/episode/32",
                "http://localhost:3000/api/episode/33",
                "http://localhost:3000/api/episode/34",
                "http://localhost:3000/api/episode/35",
                "http://localhost:3000/api/episode/36",
                "http://localhost:3000/api/episode/37",
                "http://localhost:3000/api/episode/38",
                "http://localhost:3000/api/episode/39",
                "http://localhost:3000/api/episode/40",
                "http://localhost:3000/api/episode/41",
                "http://localhost:3000/api/episode/42",
                "http://localhost:3000/api/episode/43",
                "http://localhost:3000/api/episode/44",
                "http://localhost:3000/api/episode/45",
                "http://localhost:3000/api/episode/46",
                "http://localhost:3000/api/episode/47",
                "http://localhost:3000/api/episode/48",
                "http://localhost:3000/api/episode/49",
                "http://localhost:3000/api/episode/50",
                "http://localhost:3000/api/episode/51"
            ],
            "url": "http://localhost:3000/api/character/2",
            "created": "2017-11-04T18:50:21.651Z"
        },
        {
            "id": 3,
            "name": "Summer Smith",
            "status": "Alive",
            "species": "Human",
            "type": "",
            "gender": "Female",
            "origin": {
                "name": "Earth (Replacement Dimension)",
                "url": "http://localhost:3000/api/location/20"
            },
            "location": {
                "name": "Earth (Replacement Dimension)",
                "url": "http://localhost:3000/api/location/20"
            },
            "image": "http://localhost:3000/api/character/avatar/3.jpeg",
            "episode": [
                "http://localhost:3000/api/episode/6",
                "http://localhost:3000/api/episode/7",
                "http://localhost:3000/api/episode/8",
                "http://localhost:3000/api/episode/9",
                "http://localhost:3000/api/episode/10",
                "http://localhost:3000/api/episode/11",
                "http://localhost:3000/api/episode/12",
                "http://localhost:3000/api/episode/14",
                "http://localhost:3000/api/episode/15",
                "http://localhost:3000/api/episode/16",
                "http://localhost:3000/api/episode/17",
                "http://localhost:3000/api/episode/18",
                "http://localhost:3000/api/episode/19",
                "http://localhost:3000/api/episode/20",
                "http://localhost:3000/api/episode/21",
                "http://localhost:3000/api/episode/22",
                "http://localhost:3000/api/episode/23",
                "http://localhost:3000/api/episode/24",
                "http://localhost:3000/api/episode/25",
                "http://localhost:3000/api/episode/26",
                "http://localhost:3000/api/episode/27",
                "http://localhost:3000/api/episode/29",
                "http://localhost:3000/api/episode/30",
                "http://localhost:3000/api/episode/31",
                "http://localhost:3000/api/episode/32",
                "http://localhost:3000/api/episode/33",
                "http://localhost:3000/api/episode/34",
                "http://localhost:3000/api/episode/35",
                "http://localhost:3000/api/episode/36",
                "http://localhost:3000/api/episode/38",
                "http://localhost:3000/api/episode/39",
                "http://localhost:3000/api/episode/40",
                "http://localhost:3000/api/episode/41",
                "http://localhost:3000/api/episode/42",
                "http://localhost:3000/api/episode/43",
                "http://localhost:3000/api/episode/44",
                "http://localhost:3000/api/episode/45",
                "http://localhost:3000/api/episode/46",
                "http://localhost:3000/api/episode/47",
                "http://localhost:3000/api/episode/48",
                "http://localhost:3000/api/episode/49",
                "http://localhost:3000/api/episode/51"
            ],
            "url": "http://localhost:3000/api/character/3",
            "created": "2017-11-04T19:09:56.428Z"
        },
        {
            "id": 4,
            "name": "Beth Smith",
            "status": "Alive",
            "species": "Human",
            "type": "",
            "gender": "Female",
            "origin": {
                "name": "Earth (Replacement Dimension)",
                "url": "http://localhost:3000/api/location/20"
            },
            "location": {
                "name": "Earth (Replacement Dimension)",
                "url": "http://localhost:3000/api/location/20"
            },
            "image": "http://localhost:3000/api/character/avatar/4.jpeg",
            "episode": [
                "http://localhost:3000/api/episode/6",
                "http://localhost:3000/api/episode/7",
                "http://localhost:3000/api/episode/8",
                "http://localhost:3000/api/episode/9",
                "http://localhost:3000/api/episode/10",
                "http://localhost:3000/api/episode/11",
                "http://localhost:3000/api/episode/12",
                "http://localhost:3000/api/episode/14",
                "http://localhost:3000/api/episode/15",
                "http://localhost:3000/api/episode/16",
                "http://localhost:3000/api/episode/18",
                "http://localhost:3000/api/episode/19",
                "http://localhost:3000/api/episode/20",
                "http://localhost:3000/api/episode/21",
                "http://localhost:3000/api/episode/22",
                "http://localhost:3000/api/episode/23",
                "http://localhost:3000/api/episode/24",
                "http://localhost:3000/api/episode/25",
                "http://localhost:3000/api/episode/26",
                "http://localhost:3000/api/episode/27",
                "http://localhost:3000/api/episode/28",
                "http://localhost:3000/api/episode/29",
                "http://localhost:3000/api/episode/30",
                "http://localhost:3000/api/episode/31",
                "http://localhost:3000/api/episode/32",
                "http://localhost:3000/api/episode/33",
                "http://localhost:3000/api/episode/34",
                "http://localhost:3000/api/episode/35",
                "http://localhost:3000/api/episode/36",
                "http://localhost:3000/api/episode/38",
                "http://localhost:3000/api/episode/39",
                "http://localhost:3000/api/episode/40",
                "http://localhost:3000/api/episode/41",
                "http://localhost:3000/api/episode/42",
                "http://localhost:3000/api/episode/43",
                "http://localhost:3000/api/episode/44",
                "http://localhost:3000/api/episode/45",
                "http://localhost:3000/api/episode/46",
                "http://localhost:3000/api/episode/47",
                "http://localhost:3000/api/episode/48",
                "http://localhost:3000/api/episode/49",
                "http://localhost:3000/api/episode/51"
            ],
            "url": "http://localhost:3000/api/character/4",
            "created": "2017-11-04T19:22:43.665Z"
        },
        {
            "id": 5,
            "name": "Jerry Smith",
            "status": "Alive",
            "species": "Human",
            "type": "",
            "gender": "Male",
            "origin": {
                "name": "Earth (Replacement Dimension)",
                "url": "http://localhost:3000/api/location/20"
            },
            "location": {
                "name": "Earth (Replacement Dimension)",
                "url": "http://localhost:3000/api/location/20"
            },
            "image": "http://localhost:3000/api/character/avatar/5.jpeg",
            "episode": [
                "http://localhost:3000/api/episode/6",
                "http://localhost:3000/api/episode/7",
                "http://localhost:3000/api/episode/8",
                "http://localhost:3000/api/episode/9",
                "http://localhost:3000/api/episode/10",
                "http://localhost:3000/api/episode/11",
                "http://localhost:3000/api/episode/12",
                "http://localhost:3000/api/episode/13",
                "http://localhost:3000/api/episode/14",
                "http://localhost:3000/api/episode/15",
                "http://localhost:3000/api/episode/16",
                "http://localhost:3000/api/episode/18",
                "http://localhost:3000/api/episode/19",
                "http://localhost:3000/api/episode/20",
                "http://localhost:3000/api/episode/21",
                "http://localhost:3000/api/episode/22",
                "http://localhost:3000/api/episode/23",
                "http://localhost:3000/api/episode/26",
                "http://localhost:3000/api/episode/29",
                "http://localhost:3000/api/episode/30",
                "http://localhost:3000/api/episode/31",
                "http://localhost:3000/api/episode/32",
                "http://localhost:3000/api/episode/33",
                "http://localhost:3000/api/episode/35",
                "http://localhost:3000/api/episode/36",
                "http://localhost:3000/api/episode/38",
                "http://localhost:3000/api/episode/39",
                "http://localhost:3000/api/episode/40",
                "http://localhost:3000/api/episode/41",
                "http://localhost:3000/api/episode/42",
                "http://localhost:3000/api/episode/43",
                "http://localhost:3000/api/episode/44",
                "http://localhost:3000/api/episode/45",
                "http://localhost:3000/api/episode/46",
                "http://localhost:3000/api/episode/47",
                "http://localhost:3000/api/episode/48",
                "http://localhost:3000/api/episode/49",
                "http://localhost:3000/api/episode/50",
                "http://localhost:3000/api/episode/51"
            ],
            "url": "http://localhost:3000/api/character/5",
            "created": "2017-11-04T19:26:56.301Z"
        },
        {
            "id": 6,
            "name": "Abadango Cluster Princess",
            "status": "Alive",
            "species": "Alien",
            "type": "",
            "gender": "Female",
            "origin": {
                "name": "Abadango",
                "url": "http://localhost:3000/api/location/2"
            },
            "location": {
                "name": "Abadango",
                "url": "http://localhost:3000/api/location/2"
            },
            "image": "http://localhost:3000/api/character/avatar/6.jpeg",
            "episode": ["http://localhost:3000/api/episode/27"],
            "url": "http://localhost:3000/api/character/6",
            "created": "2017-11-04T19:50:28.250Z"
        },
        {
            "id": 7,
            "name": "Abradolf Lincler",
            "status": "unknown",
            "species": "Human",
            "type": "Genetic experiment",
            "gender": "Male",
            "origin": {
                "name": "Earth (Replacement Dimension)",
                "url": "http://localhost:3000/api/location/20"
            },
            "location": {
                "name": "Testicle Monster Dimension",
                "url": "http://localhost:3000/api/location/21"
            },
            "image": "http://localhost:3000/api/character/avatar/7.jpeg",
            "episode": [
                "http://localhost:3000/api/episode/10",
                "http://localhost:3000/api/episode/11"
            ],
            "url": "http://localhost:3000/api/character/7",
            "created": "2017-11-04T19:59:20.523Z"
        },
        {
            "id": 8,
            "name": "Adjudicator Rick",
            "status": "Dead",
            "species": "Human",
            "type": "",
            "gender": "Male",
            "origin": {
                "name": "unknown",
                "url": ""
            },
            "location": {
                "name": "Citadel of Ricks",
                "url": "http://localhost:3000/api/location/3"
            },
            "image": "http://localhost:3000/api/character/avatar/8.jpeg",
            "episode": ["http://localhost:3000/api/episode/28"],
            "url": "http://localhost:3000/api/character/8",
            "created": "2017-11-04T20:03:34.737Z"
        },
        {
            "id": 9,
            "name": "Agency Director",
            "status": "Dead",
            "species": "Human",
            "type": "",
            "gender": "Male",
            "origin": {
                "name": "Earth (Replacement Dimension)",
                "url": "http://localhost:3000/api/location/20"
            },
            "location": {
                "name": "Earth (Replacement Dimension)",
                "url": "http://localhost:3000/api/location/20"
            },
            "image": "http://localhost:3000/api/character/avatar/9.jpeg",
            "episode": ["http://localhost:3000/api/episode/24"],
            "url": "http://localhost:3000/api/character/9",
            "created": "2017-11-04T20:06:54.976Z"
        },
        {
            "id": 10,
            "name": "Alan Rails",
            "status": "Dead",
            "species": "Human",
            "type": "Superhuman (Ghost trains summoner)",
            "gender": "Male",
            "origin": {
                "name": "unknown",
                "url": ""
            },
            "location": {
                "name": "Worldender's lair",
                "url": "http://localhost:3000/api/location/4"
            },
            "image": "http://localhost:3000/api/character/avatar/10.jpeg",
            "episode": ["http://localhost:3000/api/episode/25"],
            "url": "http://localhost:3000/api/character/10",
            "created": "2017-11-04T20:19:09.017Z"
        },
        {
            "id": 11,
            "name": "Albert Einstein",
            "status": "Dead",
            "species": "Human",
            "type": "",
            "gender": "Male",
            "origin": {
                "name": "Earth (C-137)",
                "url": "http://localhost:3000/api/location/1"
            },
            "location": {
                "name": "Earth (Replacement Dimension)",
                "url": "http://localhost:3000/api/location/20"
            },
            "image": "http://localhost:3000/api/character/avatar/11.jpeg",
            "episode": ["http://localhost:3000/api/episode/12"],
            "url": "http://localhost:3000/api/character/11",
            "created": "2017-11-04T20:20:20.965Z"
        },
        {
            "id": 12,
            "name": "Alexander",
            "status": "Dead",
            "species": "Human",
            "type": "",
            "gender": "Male",
            "origin": {
                "name": "Earth (C-137)",
                "url": "http://localhost:3000/api/location/1"
            },
            "location": {
                "name": "Anatomy Park",
                "url": "http://localhost:3000/api/location/5"
            },
            "image": "http://localhost:3000/api/character/avatar/12.jpeg",
            "episode": ["http://localhost:3000/api/episode/3"],
            "url": "http://localhost:3000/api/character/12",
            "created": "2017-11-04T20:32:33.144Z"
        },
        {
            "id": 13,
            "name": "Alien Googah",
            "status": "unknown",
            "species": "Alien",
            "type": "",
            "gender": "unknown",
            "origin": {
                "name": "unknown",
                "url": ""
            },
            "location": {
                "name": "Earth (Replacement Dimension)",
                "url": "http://localhost:3000/api/location/20"
            },
            "image": "http://localhost:3000/api/character/avatar/13.jpeg",
            "episode": ["http://localhost:3000/api/episode/31"],
            "url": "http://localhost:3000/api/character/13",
            "created": "2017-11-04T20:33:30.779Z"
        },
        {
            "id": 14,
            "name": "Alien Morty",
            "status": "unknown",
            "species": "Alien",
            "type": "",
            "gender": "Male",
            "origin": {
                "name": "unknown",
                "url": ""
            },
            "location": {
                "name": "Citadel of Ricks",
                "url": "http://localhost:3000/api/location/3"
            },
            "image": "http://localhost:3000/api/character/avatar/14.jpeg",
            "episode": ["http://localhost:3000/api/episode/10"],
            "url": "http://localhost:3000/api/character/14",
            "created": "2017-11-04T20:51:31.373Z"
        },
        {
            "id": 15,
            "name": "Alien Rick",
            "status": "unknown",
            "species": "Alien",
            "type": "",
            "gender": "Male",
            "origin": {
                "name": "unknown",
                "url": ""
            },
            "location": {
                "name": "Citadel of Ricks",
                "url": "http://localhost:3000/api/location/3"
            },
            "image": "http://localhost:3000/api/character/avatar/15.jpeg",
            "episode": ["http://localhost:3000/api/episode/10"],
            "url": "http://localhost:3000/api/character/15",
            "created": "2017-11-04T20:56:13.215Z"
        },
        {
            "id": 16,
            "name": "Amish Cyborg",
            "status": "Dead",
            "species": "Alien",
            "type": "Parasite",
            "gender": "Male",
            "origin": {
                "name": "unknown",
                "url": ""
            },
            "location": {
                "name": "Earth (Replacement Dimension)",
                "url": "http://localhost:3000/api/location/20"
            },
            "image": "http://localhost:3000/api/character/avatar/16.jpeg",
            "episode": ["http://localhost:3000/api/episode/15"],
            "url": "http://localhost:3000/api/character/16",
            "created": "2017-11-04T21:12:45.235Z"
        },
        {
            "id": 17,
            "name": "Annie",
            "status": "Alive",
            "species": "Human",
            "type": "",
            "gender": "Female",
            "origin": {
                "name": "Earth (C-137)",
                "url": "http://localhost:3000/api/location/1"
            },
            "location": {
                "name": "Anatomy Park",
                "url": "http://localhost:3000/api/location/5"
            },
            "image": "http://localhost:3000/api/character/avatar/17.jpeg",
            "episode": ["http://localhost:3000/api/episode/3"],
            "url": "http://localhost:3000/api/character/17",
            "created": "2017-11-04T22:21:24.481Z"
        },
        {
            "id": 18,
            "name": "Antenna Morty",
            "status": "Alive",
            "species": "Human",
            "type": "Human with antennae",
            "gender": "Male",
            "origin": {
                "name": "unknown",
                "url": ""
            },
            "location": {
                "name": "Citadel of Ricks",
                "url": "http://localhost:3000/api/location/3"
            },
            "image": "http://localhost:3000/api/character/avatar/18.jpeg",
            "episode": [
                "http://localhost:3000/api/episode/10",
                "http://localhost:3000/api/episode/28"
            ],
            "url": "http://localhost:3000/api/character/18",
            "created": "2017-11-04T22:25:29.008Z"
        },
        {
            "id": 19,
            "name": "Antenna Rick",
            "status": "unknown",
            "species": "Human",
            "type": "Human with antennae",
            "gender": "Male",
            "origin": {
                "name": "unknown",
                "url": ""
            },
            "location": {
                "name": "unknown",
                "url": ""
            },
            "image": "http://localhost:3000/api/character/avatar/19.jpeg",
            "episode": ["http://localhost:3000/api/episode/10"],
            "url": "http://localhost:3000/api/character/19",
            "created": "2017-11-04T22:28:13.756Z"
        },
        {
            "id": 20,
            "name": "Ants in my Eyes Johnson",
            "status": "unknown",
            "species": "Human",
            "type": "Human with ants in his eyes",
            "gender": "Male",
            "origin": {
                "name": "unknown",
                "url": ""
            },
            "location": {
                "name": "Interdimensional Cable",
                "url": "http://localhost:3000/api/location/6"
            },
            "image": "http://localhost:3000/api/character/avatar/20.jpeg",
            "episode": ["http://localhost:3000/api/episode/8"],
            "url": "http://localhost:3000/api/character/20",
            "created": "2017-11-04T22:34:53.659Z"
        }
    ]
}
